 $CONTRL RUNTYP=OPTIMIZE DFTTYP=B3LYPV1R
 NZVAR=42 UNITS=ANGS $END
 $SYSTEM TIMLIM=99999999999 MWORDS=200 $END
 $STATPT NSTEP=3 OPTTOL=5D-4 $END
 $SCF DIRSCF=.T. FDIFF=.T. $END
 $ZMAT DLC=.T. AUTO=.T. $END
 $BASIS GBASIS=N31 NGAUSS=6 NDFUNC=1 $END

 $DATA
PUBCHEM 012556115 B3LYP 6-31G(d) gamess geometry optimization
C1
C      6.0      1.0311353372    0.1003402907    0.1130914094 
C      6.0      4.5470273205   -1.3501219158   -0.1700352704 
C      6.0      3.0245380619   -1.3482565947   -0.0663271865 
C      6.0      4.5498225918    0.9685054584   -0.1045398629 
N      7.0      5.2169254283   -0.0857203863    0.1230115878 
N      7.0      3.1812206987    1.0586944900   -0.3984557955 
N      7.0      2.4227864673   -0.1239195738   -0.2486229687 
O      8.0      2.3868199972   -2.3600216181    0.1855329675 
S     16.0      5.2672266370    2.6074988304   -0.0158599934 
H      1.0      0.5821485651   -0.8779004765    0.2829240522 
H      1.0      0.5009152260    0.6082152547   -0.7010259244 
H      1.0      0.9664536484    0.7133577200    1.0188664169 
H      1.0      4.8348842902   -1.6834705218   -1.1785272632 
H      1.0      4.9014504838   -2.1204297699    0.5205641386 
H      1.0      2.9869974183    1.5186634615   -1.2875619487 
H      1.0      6.5324336355    2.1788879841   -0.1939948834 
 $END


