 $CONTRL RUNTYP=OPTIMIZE DFTTYP=B3LYPV1R
 NZVAR=66 UNITS=ANGS $END
 $SYSTEM TIMLIM=99999999999 MWORDS=200 $END
 $STATPT NSTEP=3 OPTTOL=5D-4 $END
 $SCF DIRSCF=.T. FDIFF=.T. $END
 $ZMAT DLC=.T. AUTO=.T. $END
 $BASIS GBASIS=N31 NGAUSS=6 NDFUNC=1 $END

 $DATA
PUBCHEM 022599566 B3LYP 6-31G(d) gamess geometry optimization
C1
C      6.0     -1.3278459634    0.0263569831   -0.2518343195 
C      6.0     -0.5717263312   -1.1404322075   -0.1299989573 
C      6.0     -0.6673656927    1.2550423543   -0.2731326724 
C      6.0      0.8146309145   -1.0882585369   -0.0063030180 
C      6.0      0.7195355661    1.3241358543   -0.1593405975 
C      6.0      4.7541442662    1.7390428951    0.0019378643 
C      6.0      4.8825586924   -1.1653088313   -0.0560564158 
C      6.0      3.5159753319    1.4280255152    0.4300656489 
C      6.0      3.6521260537   -0.9526818981    0.4343727511 
C      6.0      1.4814027678    0.1511820863    0.0038523475 
C      6.0      5.5376096671    0.8890231262   -0.9136030517 
N      7.0      5.5965684374   -0.3887443630   -0.9637341035 
N      7.0      2.8794928277    0.2167656783    0.1424354313 
O      8.0      6.3299876612    1.5592499313   -1.7959655809 
H      1.0     -2.4083652383   -0.0225304826   -0.3476959987 
H      1.0     -1.0626977496   -2.1101412915   -0.1352032459 
H      1.0     -1.2316503509    2.1757824803   -0.3967805428 
H      1.0      1.3793120773   -2.0107607936    0.0607082617 
H      1.0      1.2084533990    2.2898662643   -0.2297179942 
H      1.0      5.1963160922    2.6774714364    0.3295546872 
H      1.0      5.3992665922   -2.0706501914    0.2569368571 
H      1.0      2.9601574439    2.1287974701    1.0544882957 
H      1.0      3.2190952734   -1.6413947234    1.1551655440 
H      1.0      6.0992195102    2.5010799614   -1.7714579886 
 $END


