 $CONTRL RUNTYP=OPTIMIZE DFTTYP=B3LYPV1R
 NZVAR=48 UNITS=ANGS $END
 $SYSTEM TIMLIM=99999999999 MWORDS=200 $END
 $STATPT NSTEP=3 OPTTOL=5D-4 $END
 $SCF DIRSCF=.T. FDIFF=.T. $END
 $ZMAT DLC=.T. AUTO=.T. $END
 $BASIS GBASIS=N31 NGAUSS=6 NDFUNC=1 $END

 $DATA
PUBCHEM 055280043 B3LYP 6-31G(d) gamess geometry optimization
C1
C      6.0      2.2217622845    0.0248695884    1.0836939079 
C      6.0      3.3134855313    0.3335469842    1.8495433125 
C      6.0      2.1934473608   -0.2430365896   -0.3149909287 
C      6.0      4.6663645156    0.4634592410    1.4223692402 
C      6.0      3.2125673583   -0.2842989034   -1.2255065732 
C      6.0      5.2429185251    0.3028969508    0.1906998149 
C      6.0      4.6372099593   -0.0706107101   -1.0714126009 
Cl    17.0      7.7292488053   -1.6865761346   -1.2367009214 
N      7.0      5.2890009923   -0.2598295738   -2.2145946698 
O      8.0      7.2522434461   -0.3128523819   -3.7665478735 
O      8.0      7.4081929880    1.1705172821   -1.7174060641 
S     16.0      6.9120753570   -0.0345159523   -2.3840864070 
H      1.0      1.2608029307   -0.0205011928    1.5905005245 
H      1.0      3.1379791470    0.5116710840    2.9077926319 
H      1.0      1.2065673357   -0.4566653616   -0.7199508062 
H      1.0      5.3615818520    0.7422621826    2.2118214371 
H      1.0      2.9446933389   -0.5249210175   -2.2507660824 
H      1.0      6.3085630074    0.4900543948    0.1518093095 
 $END


