 $CONTRL RUNTYP=OPTIMIZE DFTTYP=B3LYPV1R
 NZVAR=48 UNITS=ANGS $END
 $SYSTEM TIMLIM=99999999999 MWORDS=200 $END
 $STATPT NSTEP=3 OPTTOL=5D-4 $END
 $SCF DIRSCF=.T. FDIFF=.T. $END
 $ZMAT DLC=.T. AUTO=.T. $END
 $BASIS GBASIS=N31 NGAUSS=6 NDFUNC=1 $END

 $DATA
PUBCHEM 055301564 B3LYP 6-31G(d) gamess geometry optimization
C1
C      6.0      1.1613083423    0.2155071775   -0.1237779513 
C      6.0      1.6149331815   -0.9260281676    0.2912634513 
C      6.0      2.2614135406   -0.3834865883   -0.9622310801 
C      6.0      3.6771118729    0.1827532953   -0.9676943102 
C      6.0      4.7315032922   -0.9053225665   -1.1885290476 
C      6.0      6.1445282099   -0.3740118578   -1.2541708799 
C      6.0      7.2364871098   -1.4548446957   -1.4464971229 
O      8.0      6.4512591355    0.7944346376   -1.1688722426 
O      8.0      8.4700619339   -0.9278314696   -1.5079500554 
O      8.0      6.9942165352   -2.6392059197   -1.5313335056 
H      1.0      1.5856502138   -1.7335651663    1.0084153776 
H      1.0      0.4847299053    1.0492983643   -0.0040956670 
H      1.0      3.8736807344    0.6979078591   -0.0200106540 
H      1.0      4.6922721121   -1.6703879795   -0.4001491757 
H      1.0      1.9868409372   -0.8418805898   -1.9216550149 
H      1.0      3.7740476996    0.9414044440   -1.7556405922 
H      1.0      4.5424169234   -1.4660823654   -2.1161793310 
H      1.0      9.0823821148   -1.6782976008   -1.6303537418 
 $END


