 $CONTRL RUNTYP=ENERGY UNITS=ANGS DFTTYP=B3LYPV1R 
 TDDFT=EXCITE ICUT=12 QMTTOL=3.0E-6 MAXIT=60 $END
 $SYSTEM TIMLIM=99999999999 MWORDS=200 $END
 $SCF DIRSCF=.T. FDIFF=.F. DAMP=.T. $END
 $BASIS GBASIS=N31 NGAUSS=6 NDFUNC=1 DIFFSP=.T. $END
 $TDDFT NSTATE=10 $END

 $DATA
PUBCHEM 000009797 TD-B3LYP 6-31+G(d) gamess
C1
C      6.0      1.0692014622    0.4258014075    0.0471062943 
C      6.0      2.1169521217   -0.2963675060   -0.5061015290 
C      6.0      3.0186287799    0.3372328333   -1.3757259553 
C      6.0      2.9004227611    1.7430882378   -1.6083702803 
C      6.0      1.9334341811    2.5151432728   -0.8930604194 
C      6.0      0.9720000966    1.8041806863   -0.1519944961 
C      6.0      1.9771925194    3.9779227667   -1.0023534136 
C      6.0      2.7085046427    4.5698828088   -2.0421379982 
C      6.0      3.4171802806    3.7163278653   -3.0027451001 
C      6.0      3.8652689836    4.1459255648   -4.2651914588 
C      6.0      4.6708830762    3.3405727558   -5.0724042139 
C      6.0      5.0389604216    2.0682610283   -4.6588227978 
C      6.0      4.4982492604    1.5347245583   -3.4783309233 
C      6.0      3.6450540517    2.3458930030   -2.6668804519 
C      6.0      4.7144260547    0.1636618198   -3.1108962006 
C      6.0      4.0052314449   -0.4103422588   -2.1032953590 
C      6.0      2.7532584064    6.0325739776   -2.1510840784 
C      6.0      3.7136365743    6.7427092012   -2.8943880291 
C      6.0      3.6178632349    8.1212898812   -3.0924320693 
C      6.0      2.5726436912    8.8446141825   -2.5359494388 
C      6.0      1.6721450603    8.2116813590   -1.6646819138 
C      6.0      1.7886913902    6.8054335708   -1.4333626709 
C      6.0      1.0439526877    6.2026490429   -0.3749777122 
C      6.0      0.1921793299    7.0141864963    0.4376664492 
C      6.0     -0.3504193155    6.4796865697    1.6168260560 
C      6.0      0.0143867656    5.2056951425    2.0281606692 
C      6.0      0.8188856570    4.4001942304    1.2200540141 
C      6.0      1.2691212719    4.8312366759   -0.0411975863 
C      6.0     -0.0213486480    8.3862513937    0.0725754489 
C      6.0      0.6880043993    8.9602454784   -0.9348786242 
H      1.0      0.3113050560   -0.0802210735    0.6390120807 
H      1.0      2.2073910368   -1.3655559162   -0.3313513632 
H      1.0      0.1152428884    2.3223971950    0.2559363388 
H      1.0      3.5626420231    5.1122085703   -4.6444668818 
H      1.0      5.0063058271    3.7192699686   -6.0341330877 
H      1.0      5.6862917676    1.4497998379   -5.2755512104 
H      1.0      5.4208166960   -0.4214154945   -3.6946928390 
H      1.0      4.1333469591   -1.4634881341   -1.8654073937 
H      1.0      4.5687471540    6.2236988025   -3.3046915712 
H      1.0      4.3748824470    8.6265668551   -3.6861010147 
H      1.0      2.4833734102    9.9140784070   -2.7096098267 
H      1.0     -0.9967097653    7.0984719648    2.2343280630 
H      1.0     -0.3227248066    4.8258011591    2.9888360277 
H      1.0      1.1192625928    3.4326843798    1.5979224596 
H      1.0     -0.7258663254    8.9719494217    0.6580130336 
H      1.0      0.5619099831   10.0140234103   -1.1710374163 
 $END


