 $CONTRL RUNTYP=ENERGY UNITS=ANGS DFTTYP=B3LYPV1R 
 TDDFT=EXCITE ICUT=12 QMTTOL=3.0E-6 MAXIT=60 $END
 $SYSTEM TIMLIM=99999999999 MWORDS=200 $END
 $SCF DIRSCF=.T. FDIFF=.F. DAMP=.T. $END
 $BASIS GBASIS=N31 NGAUSS=6 NDFUNC=1 DIFFSP=.T. $END
 $TDDFT NSTATE=10 $END

 $DATA
PUBCHEM 000003018 TD-B3LYP 6-31+G(d) gamess
C1
C      6.0      9.1191955750    7.5155134090    1.9490209318 
C      6.0      7.9109804241    7.7825015491    1.0723769824 
O      8.0      7.7630460829    6.6524347469    0.1779093198 
C      6.0      6.6818005597    6.6966769538   -0.6197485720 
O      8.0      5.8429647963    7.5733171836   -0.6115121783 
N      7.0      6.5755293701    5.5834274385   -1.4502818615 
C      6.0      7.3693792359    4.4527122308   -1.5489497754 
C      6.0      8.7285782631    4.4002774355   -1.6116566479 
C      6.0      9.3544208685    3.0682775159   -1.5987657862 
O      8.0     10.5728206570    2.9254158176   -1.5022104676 
C      6.0      8.5030299719    1.8212539753   -1.7168827590 
C      6.0      7.1440215364    1.8689297788   -1.6681311373 
C      6.0      6.5180187894    3.2028813563   -1.6942506134 
O      8.0      5.3046202593    3.3504231140   -1.8204683240 
C      6.0      6.2406695371    0.6841388816   -1.6037745807 
C      6.0      6.4429378147   -0.3711822659   -0.5388815058 
C      6.0      5.2543247906    0.5537128600   -0.4683903863 
N      7.0      9.2906358074    0.6856904641   -1.8045892820 
C      6.0      9.0724962974   -0.4082453169   -2.6329247016 
O      8.0      8.1148073714   -0.5851870459   -3.3542838575 
O      8.0     10.1366163612   -1.2371126534   -2.5206009243 
C      6.0     10.1068185650   -2.4201562024   -3.3545273034 
C      6.0      9.3394759165   -3.5490025549   -2.6845674587 
C      6.0      9.6542896944    5.5659397739   -1.6932421104 
C      6.0     10.4923409115    5.7512939792   -2.9392411948 
C      6.0      9.3774033702    6.7175146119   -2.6303757189 
H      1.0      9.2541368492    8.3456248462    2.6506995548 
H      1.0     10.0306329668    7.4219896058    1.3498936524 
H      1.0      8.9882078875    6.5947215688    2.5261210879 
H      1.0      8.0285492263    8.6904282552    0.4724815550 
H      1.0      6.9931591626    7.8869524819    1.6578871700 
H      1.0      5.6110798017    5.4032666588   -1.7243025160 
H      1.0      5.9079822064    0.3125164294   -2.5691617062 
H      1.0      7.2398714656   -0.2238276949    0.1849648551 
H      1.0      6.2861854660   -1.4073786707   -0.8247475552 
H      1.0      5.2547503825    1.3206324137    0.3011790105 
H      1.0      4.2678630691    0.1637857230   -0.7014912808 
H      1.0     10.2674254855    0.8738844718   -1.5842262072 
H      1.0     11.1602852623   -2.6753752117   -3.4919855957 
H      1.0      9.6682917979   -2.1590421905   -4.3206598610 
H      1.0      9.7609225360   -3.7759758061   -1.6998984898 
H      1.0      9.3971436714   -4.4535554343   -3.3009032207 
H      1.0      8.2857474515   -3.2804437995   -2.5676226059 
H      1.0     10.1534468096    5.8177565756   -0.7603982160 
H      1.0     10.3447581848    5.0549820554   -3.7600834536 
H      1.0     11.5214658395    6.0740380601   -2.8113706796 
H      1.0      8.4847735434    6.6742132994   -3.2477983362 
H      1.0      9.6336469266    7.7179826401   -2.2925471049 
 $END


