 $CONTRL RUNTYP=OPTIMIZE UNITS=ANGS DFTTYP=B3LYPV1R $END
 $BASIS GBASIS=N31 NGAUSS=6 NDFUNC=1 $END
 $ZMAT DLC=.T. AUTO=.T. $END
 $SCF DIRSCF=.T. FDIFF=.T. $END
 $STATPT NSTEP=3 OPTTOL=5D-4 $END
 $SYSTEM TIMLIM=99999999999 MWORDS=200 $END

 $DATA
PUBCHEM 000002246 B3LYP 6-31G(d) gamess geometry optimization
C1
C      6.0      8.0919792906    8.9804964981    4.7520983192 
C      6.0      8.7069756549    8.5473005837    6.0628545467 
C      6.0      8.2554780673    7.5273615512    6.8599279166 
C      6.0      8.9502007614    7.1782494903    8.1956591803 
C      6.0      9.6314825705    8.4286461365    8.7914358340 
C      6.0     10.5133752077    9.2071148087    7.8294273809 
C      6.0      9.9387083849    9.2770481566    6.4136324821 
O      8.0     10.5619928855    9.9317399752    5.5784755606 
O      8.0     11.8162418923    8.6252475066    7.7602328201 
C      6.0      9.9857804712    6.0576268576    7.9215473437 
C      6.0      7.9504287836    6.6639626307    9.2568315019 
C      6.0      7.1438699751    6.6537894695    6.4672737119 
C      6.0      6.9349496522    6.1381898485    5.2287905383 
C      6.0      5.8499141501    5.2477720362    4.8617591856 
C      6.0      5.7260974193    4.7300803114    3.5986328965 
C      6.0      6.5793698745    4.9326150302    2.4608397224 
C      6.0      6.3328448518    4.3616025488    1.2469683434 
C      6.0      7.1391303069    4.5177461206    0.0601486632 
C      6.0      6.8158481613    3.9241370128   -1.1369330363 
C      6.0      5.6933742859    3.0901411137   -1.4412762362 
C      6.0      5.4638253372    2.5620156887   -2.6814619711 
C      6.0      4.3394915507    1.7349569847   -2.9894652722 
C      6.0      4.0100512173    1.1618584660   -4.1935571987 
C      6.0      4.8377586773    1.3283544227   -5.4457324174 
C      6.0      2.8077871034    0.3680259756   -4.2621355723 
C      6.0      2.3096810470   -0.2638144172   -5.3650422271 
C      6.0      1.0960695185   -1.0261953704   -5.3372122739 
C      6.0      0.4911904836   -1.6980714488   -6.3668509180 
C      6.0      1.0440171734   -1.7450473543   -7.7702748897 
C      6.0     -0.7480615806   -2.3958577202   -6.0834380233 
C      6.0     -1.4633386698   -3.1451340068   -6.9623925358 
C      6.0     -2.6973769266   -3.8790702837   -6.6669089140 
C      6.0     -3.6911866877   -3.3626822753   -5.8749562919 
C      6.0     -4.8262633306   -4.2037385456   -5.4586303687 
O      8.0     -5.5345541333   -3.9060168651   -4.4967621369 
C      6.0     -5.1403103800   -5.5108543392   -6.1875520487 
C      6.0     -4.2558635107   -5.7425497631   -7.4014789527 
C      6.0     -2.7820480251   -5.3152517645   -7.2328741169 
C      6.0     -2.0362694448   -6.2619006887   -6.2578561962 
C      6.0     -2.1186223809   -5.4352873896   -8.6244376816 
O      8.0     -5.0104568416   -6.5895526167   -5.2595741257 
C      6.0     -3.7158435054   -1.9693815028   -5.2900016195 
C      6.0      8.3833523335    5.3729390553    0.1404847509 
C      6.0      4.8229177204    4.8890095126    5.9101757486 
H      1.0      7.0357057435    8.7103393365    4.6889698497 
H      1.0      8.6094687481    8.5356756065    3.8926004879 
H      1.0      8.1972708440   10.0633891355    4.6373454360 
H      1.0     10.2256310068    8.1476955931    9.6691788904 
H      1.0      8.8450036920    9.1092941653    9.1440067807 
H      1.0     10.5979390258   10.2502572922    8.1768232209 
H      1.0     12.2529943292    9.0699431870    7.0119725450 
H      1.0     10.7857855319    6.4074028571    7.2658317093 
H      1.0      9.5020745721    5.1882854510    7.4618869248 
H      1.0     10.4442796133    5.7345974419    8.8641238115 
H      1.0      7.1135325950    7.3579932501    9.4018841324 
H      1.0      8.4674181655    6.5633958267   10.2177416001 
H      1.0      7.5438671776    5.6797508660    9.0044279600 
H      1.0      6.4746841909    6.3471049544    7.2651771877 
H      1.0      7.6502730700    6.3834027098    4.4508008868 
H      1.0      4.8709193845    4.0778427012    3.4193803163 
H      1.0      7.4540992024    5.5664498936    2.5733266698 
H      1.0      5.4476701970    3.7336529173    1.1678032236 
H      1.0      7.4918728252    4.1082070572   -1.9720033801 
H      1.0      4.9776857406    2.8604691289   -0.6539434248 
H      1.0      6.1778467155    2.7914721552   -3.4702108014 
H      1.0      3.6616622314    1.5430315836   -2.1566886598 
H      1.0      5.7324736041    1.9308852014   -5.2820347257 
H      1.0      4.2531638800    1.8108051543   -6.2393545508 
H      1.0      5.1603852370    0.3538510643   -5.8331930128 
H      1.0      2.2476021329    0.2743620262   -3.3309916126 
H      1.0      2.8487891545   -0.1849336360   -6.3047777607 
H      1.0      0.5982481331   -1.0682038341   -4.3675327666 
H      1.0      1.9583721924   -1.1599422193   -7.8814433234 
H      1.0      0.3128671684   -1.3604170133   -8.4922608700 
H      1.0      1.2730888261   -2.7768351527   -8.0673566873 
H      1.0     -1.0991145586   -2.3219545367   -5.0567493107 
H      1.0     -1.0579172136   -3.2779055748   -7.9608446579 
H      1.0     -6.1913768208   -5.4348811270   -6.5122143373 
H      1.0     -4.6827970353   -5.1704692668   -8.2361398132 
H      1.0     -4.3086624036   -6.8013483545   -7.6819421951 
H      1.0     -2.5356679914   -6.3080286614   -5.2878863786 
H      1.0     -1.0028506370   -5.9281337105   -6.1109091673 
H      1.0     -2.0116822614   -7.2784864141   -6.6690139380 
H      1.0     -2.5070891083   -4.6907295611   -9.3299521819 
H      1.0     -2.3319769686   -6.4272756367   -9.0381560159 
H      1.0     -1.0301314777   -5.3326233661   -8.5772794408 
H      1.0     -5.4671125720   -6.2870596518   -4.4544440288 
H      1.0     -3.1121428007   -1.2723302626   -5.8753047132 
H      1.0     -3.3469815666   -1.9538329971   -4.2565616114 
H      1.0     -4.7475392843   -1.6081067189   -5.2462055003 
H      1.0      8.1407097175    6.4091501630    0.4099889168 
H      1.0      8.9133862608    5.3915318652   -0.8157390671 
H      1.0      9.0786920274    4.9993710586    0.9031005983 
H      1.0      5.2826793353    4.3716444503    6.7628734275 
H      1.0      4.0507985634    4.2325506355    5.4992809413 
H      1.0      4.3276464559    5.7831033646    6.3103484501 
 $END


