 $CONTRL RUNTYP=OPTIMIZE UNITS=ANGS DFTTYP=B3LYPV1R $END
 $BASIS GBASIS=N31 NGAUSS=6 NDFUNC=1 $END
 $ZMAT DLC=.T. AUTO=.T. $END
 $SCF DIRSCF=.T. FDIFF=.T. $END
 $STATPT NSTEP=3 OPTTOL=5D-4 $END
 $SYSTEM TIMLIM=99999999999 MWORDS=200 $END

 $DATA
PUBCHEM 000009125 B3LYP 6-31G(d) gamess geometry optimization
C1
C      6.0      1.9141030857    0.0098431814    2.0104252317 
C      6.0      1.7603599473   -1.1502883466    1.1583207607 
C      6.0      2.1756931149    0.1699927384    0.5164859409 
C      6.0      3.6533284968    0.1476266405    0.2780736305 
C      6.0      4.4772200540    0.7138309975   -0.6473751666 
C      6.0      5.8888572723    0.4661318547   -0.5651583754 
C      6.0      6.7952687927    1.0176417599   -1.4836020154 
C      6.0      8.1719418843    0.7944993868   -1.4245775231 
C      6.0      9.0948769635    1.3876766479   -2.4023640623 
C      6.0      8.6303108596    2.2459795036   -3.4082744299 
C      6.0      9.4977667707    2.8009897657   -4.3399541588 
C      6.0     10.8521442677    2.5067833206   -4.2932727557 
C      6.0     11.3764152142    1.6548531923   -3.3083496126 
C      6.0     10.4905442538    1.0939385772   -2.3399832048 
C      6.0     11.0108526458    0.2445340961   -1.2858446852 
C      6.0     12.4092119046   -0.0326473230   -1.2162450348 
C      6.0     12.8915384989   -0.8245226496   -0.1621920761 
C      6.0     12.0338188461   -1.3402206916    0.7977410244 
C      6.0     10.6707449809   -1.0842433915    0.7259356308 
C      6.0     10.1303819836   -0.3016025339   -0.3035574768 
C      6.0      8.6859043513   -0.0421444266   -0.3821491092 
C      6.0      7.7879786421   -0.5960535998    0.5319454316 
C      6.0      6.4038111095   -0.3700822271    0.4804982014 
C      6.0      5.5021624398   -0.9506415485    1.4348330554 
C      6.0      4.1694176660   -0.6899797235    1.3263225964 
C      6.0      2.9570668970   -1.0994886875    2.1028387379 
C      6.0     13.3163660997    0.5062161870   -2.2349746064 
C      6.0     14.6994267684    0.2141855821   -2.2252511900 
C      6.0     15.5599539219    0.7183662095   -3.1833711093 
C      6.0     15.0576220835    1.5407061386   -4.2002028314 
C      6.0     13.7073476341    1.8378516425   -4.2338542716 
C      6.0     12.8077244491    1.3380851455   -3.2647922781 
H      1.0      1.2959623269    0.5312759870    2.7288977470 
H      1.0      0.9775428847   -1.8718506105    0.9665248479 
H      1.0      1.4755077550    0.7190247845   -0.1050267807 
H      1.0      4.0974525287    1.3480340861   -1.4455437690 
H      1.0      6.3766779162    1.6374212375   -2.2686822977 
H      1.0      7.5790020749    2.4983470982   -3.4706752392 
H      1.0      9.1139043547    3.4678824235   -5.1071632009 
H      1.0     11.5024679416    2.9576890755   -5.0324713780 
H      1.0     13.9492597767   -1.0400628722   -0.0766001925 
H      1.0     12.4288783106   -1.9459591535    1.6087368803 
H      1.0     10.0287651283   -1.4998110779    1.4927869385 
H      1.0      8.1465219943   -1.2414040559    1.3261583189 
H      1.0      5.9028300252   -1.5824795947    2.2245903428 
H      1.0      2.9926103809   -1.7435981278    2.9756995314 
H      1.0     15.1124994305   -0.4268868780   -1.4559881987 
H      1.0     16.6175098309    0.4719022305   -3.1459306272 
H      1.0     15.7201182866    1.9415231883   -4.9624464759 
H      1.0     13.3443024024    2.4678883711   -5.0368283472 
 $END


