 $CONTRL RUNTYP=ENERGY UNITS=ANGS DFTTYP=B3LYPV1R 
 TDDFT=EXCITE ICUT=12 QMTTOL=3.0E-6 MAXIT=60 $END
 $SYSTEM TIMLIM=99999999999 MWORDS=200 $END
 $SCF DIRSCF=.T. FDIFF=.F. DAMP=.T. $END
 $BASIS GBASIS=N31 NGAUSS=6 NDFUNC=1 DIFFSP=.T. $END
 $TDDFT NSTATE=10 $END

 $DATA
PUBCHEM 000009123 TD-B3LYP 6-31+G(d) gamess
C1
C      6.0     -5.2514670760   -0.7339211495    0.7944965801 
C      6.0     -5.2520005903    0.6864100749    0.8491946301 
C      6.0     -4.0861133422    1.3892055375    0.6637901214 
C      6.0     -2.8587581928    0.7092178861    0.4175574307 
C      6.0     -1.6434559168    1.3893770091    0.2132492685 
C      6.0     -0.4415381000    0.7293250578   -0.0258466414 
C      6.0      0.8134739528    1.4628524169   -0.2457465451 
C      6.0      1.9855847585    0.7636143760   -0.6559063508 
C      6.0      3.1765171767    1.4906681519   -0.9456642115 
C      6.0      3.1882996482    2.8789321968   -0.7470348632 
C      6.0      2.0579177314    3.5501283701   -0.3011732924 
C      6.0      0.8818010951    2.8518519128   -0.0641676333 
C      6.0      4.3644145930    0.7860603383   -1.4495129159 
C      6.0      5.4869243554    1.4738278814   -1.9015939210 
C      6.0      6.6321991218    0.8216885645   -2.3959414007 
C      6.0      7.7794430163    1.5299279847   -2.8560352131 
C      6.0      8.8737797677    0.8538899369   -3.3387667904 
C      6.0      8.8761088156   -0.5665424330   -3.3896653053 
C      6.0      7.7840270040   -1.2790081467   -2.9567695656 
C      6.0      6.6344135427   -0.6093213595   -2.4474893676 
C      6.0      5.4908112279   -1.2990821563   -2.0027340500 
C      6.0      4.3657869823   -0.6493468939   -1.5030732045 
C      6.0      3.1778854176   -1.3916089449   -1.0563400840 
C      6.0      3.1900720578   -2.7911145728   -0.9668026612 
C      6.0      2.0597320996   -3.4956487769   -0.5756914583 
C      6.0      0.8832431970   -2.8185567429   -0.2852882850 
C      6.0      0.8143931471   -1.4196207727   -0.3576147224 
C      6.0      1.9861635802   -0.6899499744   -0.7119749435 
C      6.0     -0.4409669143   -0.7060873535   -0.0810067850 
C      6.0     -1.6423494232   -1.3833698292    0.1071348855 
C      6.0     -2.8581590944   -0.7217514401    0.3627727588 
C      6.0     -4.0850444404   -1.4195478661    0.5558246659 
H      1.0     -6.1818725141   -1.2754405205    0.9421451574 
H      1.0     -6.1827696483    1.2142775285    1.0382118800 
H      1.0     -4.0832287280    2.4760334644    0.7037331931 
H      1.0     -1.6781287657    2.4731464617    0.2272333210 
H      1.0      4.0945869656    3.4474502931   -0.9172008188 
H      1.0      2.0938040898    4.6235649489   -0.1372835541 
H      1.0      0.0168886277    3.3997136355    0.2898317386 
H      1.0      5.4986781500    2.5581910070   -1.9044006045 
H      1.0      7.7738292367    2.6167870788   -2.8170613882 
H      1.0      9.7447302874    1.4032634610   -3.6856862643 
H      1.0      9.7488020953   -1.0867947189   -3.7749541032 
H      1.0      7.7819637838   -2.3658751226   -2.9959239209 
H      1.0      5.5065034114   -2.3803528981   -2.0841543961 
H      1.0      4.0964601820   -3.3443398097   -1.1807909729 
H      1.0      2.0959712408   -4.5786411273   -0.4966414892 
H      1.0      0.0182569109   -3.3928458652    0.0237527445 
H      1.0     -1.6762185488   -2.4650977628    0.0387417633 
H      1.0     -4.0814476984   -2.5062161412    0.5117711442 
 $END


