 $CONTRL RUNTYP=ENERGY UNITS=ANGS DFTTYP=B3LYPV1R 
 TDDFT=EXCITE ICUT=12 QMTTOL=3.0E-6 MAXIT=60 $END
 $SYSTEM TIMLIM=99999999999 MWORDS=200 $END
 $SCF DIRSCF=.T. FDIFF=.F. DAMP=.T. $END
 $BASIS GBASIS=N31 NGAUSS=6 NDFUNC=1 DIFFSP=.T. $END
 $TDDFT NSTATE=10 $END

 $DATA
PUBCHEM 000009186 TD-B3LYP 6-31+G(d) gamess
C1
C      6.0      2.6678560550    1.6819137334    2.4274261907 
C      6.0      1.8310324817    0.7410969992    1.8075752871 
C      6.0      2.2702378664    0.0401126538    0.6946491987 
C      6.0      3.5566704548    0.2454381807    0.1538314704 
C      6.0      4.4009034246    1.2023496673    0.7867402507 
C      6.0      3.9355076740    1.9047453605    1.9178165223 
C      6.0      5.7244299720    1.4475098597    0.2672391442 
C      6.0      6.1923355278    0.7851485786   -0.8183819106 
C      6.0      5.3890703558   -0.1962112620   -1.5027638152 
C      6.0      5.8837746227   -0.8688405542   -2.6139313001 
C      6.0      5.1239041944   -1.8354998735   -3.3038543819 
C      6.0      3.7950582239   -2.1225609472   -2.8288754466 
C      6.0      3.0354405665   -3.0897154624   -3.5183921205 
C      6.0      3.5303929098   -3.7628011906   -4.6291771964 
C      6.0      2.7279323787   -4.7457187638   -5.3122660037 
C      6.0      3.1963042691   -5.4089720378   -6.3971392221 
C      6.0      4.5192490359   -5.1626741331   -6.9175736542 
C      6.0      4.9849574076   -5.8656786893   -8.0481443093 
C      6.0      6.2518313585   -5.6413223311   -8.5590187570 
C      6.0      7.0874047108   -4.6980672695   -7.9411863894 
C      6.0      6.6479091185   -3.9965318221   -6.8287231877 
C      6.0      5.3624297188   -4.2037239223   -6.2863605566 
C      6.0      4.8662477427   -3.4782422267   -5.1114845387 
C      6.0      5.6169012347   -2.5259058699   -4.4341048335 
C      6.0      3.3020598811   -1.4321519923   -1.6986187815 
C      6.0      4.0528846420   -0.4801222196   -1.0209842892 
H      1.0      2.3231065767    2.2307118920    3.2994453201 
H      1.0      0.8338382217    0.5586630187    2.1987697233 
H      1.0      1.5995277933   -0.6800123707    0.2381788112 
H      1.0      4.5949737653    2.6311921258    2.3871217456 
H      1.0      6.3433714001    2.1848407685    0.7728208316 
H      1.0      7.1920790521    0.9814880347   -1.1981664264 
H      1.0      6.8896937732   -0.6430115948   -2.9623606906 
H      1.0      2.0296511884   -3.3158075051   -3.1697497597 
H      1.0      1.7285247343   -4.9427208314   -4.9319366231 
H      1.0      2.5779583710   -6.1474571413   -6.9017637082 
H      1.0      4.3263561822   -6.5938138254   -8.5160455094 
H      1.0      6.5967180040   -6.1903692050   -9.4308279333 
H      1.0      8.0838262986   -4.5141173618   -8.3336395598 
H      1.0      7.3174855912   -3.2741990906   -6.3740894060 
H      1.0      6.6223558550   -2.2829883856   -4.7632250810 
H      1.0      2.2966001202   -1.6750603676   -1.3694947436 
 $END


