<!DOCTYPE HTML PUBLIC "-//IETF//DTD HTML 2.0//EN">
<html><head>
<title>403 Forbidden</title>
</head><body>
<h1>Forbidden</h1>
<p>You don't have permission to access /Compound_005475001_005500000/005491639/005491639.b3lyp_6-31g(d).inp
on this server.</p>
</body></html>
