 $CONTRL RUNTYP=OPTIMIZE DFTTYP=B3LYPV1R
 NZVAR=93 UNITS=ANGS $END
 $SYSTEM TIMLIM=99999999999 MWORDS=200 $END
 $STATPT NSTEP=3 OPTTOL=5D-4 $END
 $SCF DIRSCF=.T. FDIFF=.T. $END
 $ZMAT DLC=.T. AUTO=.T. $END
 $BASIS GBASIS=N31 NGAUSS=6 NDFUNC=1 $END

 $DATA
PUBCHEM 010012979 B3LYP 6-31G(d) gamess geometry optimization
C1
C      6.0      4.1232366800    5.6513743238   -2.5921323065 
C      6.0      5.3211136518    7.6409352652   -1.7203523782 
C      6.0      4.1203083520   -1.7112178288    0.3882602307 
C      6.0      3.2052182986   -0.9272974893    1.2284731706 
C      6.0      4.9543622758   -0.8590555261   -0.2588930006 
C      6.0      3.4775274282    0.3942482419    1.0729375101 
C      6.0      3.5920111951    3.4743272661   -0.0599763816 
C      6.0      6.0299077049    4.0080890423   -0.0723006468 
C      6.0      3.1953643258    4.9145132321    0.1326093433 
C      6.0      5.6324910604    5.3529785922    0.5479846653 
C      6.0      5.2033495678    1.6287869376   -0.3613197870 
C      6.0      4.5615415338    6.3464284727   -1.5365554038 
C      6.0      4.5876423076    0.5149749898    0.1162966851 
C      6.0      4.8652174718    3.0328346202   -0.1302752860 
C      6.0      4.3406257952    5.9254521406   -0.0871455113 
H      1.0      4.3096242355    5.9933761970   -3.6073603701 
H      1.0      3.5723264274    4.7214101057   -2.4923128537 
H      1.0      5.4712373456    7.8726479371   -2.7790442028 
H      1.0      6.3080944575    7.6075743411   -1.2408822497 
H      1.0      4.7810754374    8.4805028758   -1.2608124073 
H      1.0      4.1187461413   -2.7933105918    0.3174761350 
H      1.0      2.4526733564   -1.3542689324    1.8826694294 
H      1.0      5.7403660801   -1.1086406864   -0.9619836350 
H      1.0      3.0113849989    1.2218587760    1.5896683790 
H      1.0      2.7815651368    2.7569695804   -0.1673166689 
H      1.0      6.8549933182    3.5682196534    0.5026189625 
H      1.0      6.4161997944    4.1628534808   -1.0910883200 
H      1.0      2.8110333471    5.0343252348    1.1582573270 
H      1.0      2.3491353360    5.1564082213   -0.5230924692 
H      1.0      6.4613828095    6.0646903974    0.4597671546 
H      1.0      5.4527098156    5.2135851536    1.6223725729 
H      1.0      6.0864227507    1.4677429562   -0.9842176673 
H      1.0      4.0854669987    6.8404052030    0.4672401829 
 $END


