 $CONTRL RUNTYP=ENERGY UNITS=ANGS DFTTYP=B3LYPV1R TDDFT=EXCITE
 ICUT=12 QMTTOL=3.0E-6 MAXIT=60 $END
 $SYSTEM TIMLIM=99999999999 MWORDS=200 $END
 $SCF DIRSCF=.T. FDIFF=.F. DAMP=.T. $END
 $BASIS GBASIS=N31 NGAUSS=6 NDFUNC=1 DIFFSP=.T. $END
 $TDDFT NSTATE=10 $END

 $DATA
PUBCHEM 010012497 TD-B3LYP 6-31+G(d) gamess
C1
C      6.0      1.2652673964   -0.6968987869    0.1850130559 
C      6.0      3.1829966283   -0.1719691745   -1.3771856945 
C      6.0      2.3767864124    1.5402145311    0.3011274109 
C      6.0      4.8836680966   -2.4511003252    1.8350308873 
C      6.0      5.1374445698    0.1446490187    2.6909990319 
C      6.0      3.8113194881   -1.7937405288    1.2725085540 
C      6.0      4.7200165649    0.3166468750    1.4254301312 
C      6.0      6.1448705735   -2.0593049515    2.5048117873 
C      6.0      6.4611750584   -0.5264539821    2.8286026797 
C      6.0      2.6062084472    0.0432599170    0.0365344852 
N      7.0      3.5790324653   -0.4432318165    1.0670335874 
O      8.0      7.0011668786   -2.8831894304    2.7817527104 
O      8.0      7.5830112960   -0.1272414201    2.9924731557 
H      1.0      0.5234255155   -0.2313871261   -0.4720324613 
H      1.0      0.8971741869   -0.6371049771    1.2144561593 
H      1.0      1.3276905069   -1.7510446400   -0.1026875264 
H      1.0      2.4829318622    0.1927756235   -2.1368678519 
H      1.0      3.3677213931   -1.2349096077   -1.5669656667 
H      1.0      4.1279493206    0.3664210543   -1.5091529830 
H      1.0      1.6637291730    1.9396631476   -0.4268605207 
H      1.0      3.3040587980    2.1152971982    0.2096540447 
H      1.0      1.9735698533    1.7025168023    1.3060748435 
H      1.0      4.7955201347   -3.5342855236    1.8023482471 
H      1.0      4.3894474044   -0.2806601468    3.3619300395 
H      1.0      3.0110495909   -2.4273480852    0.9004869428 
H      1.0      5.3698976383    0.6648922153    0.6206216658 
 $END


