 $CONTRL RUNTYP=ENERGY UNITS=ANGS DFTTYP=B3LYPV1R TDDFT=EXCITE
 ICUT=12 QMTTOL=3.0E-6 MAXIT=60 $END
 $SYSTEM TIMLIM=99999999999 MWORDS=200 $END
 $SCF DIRSCF=.T. FDIFF=.F. DAMP=.T. $END
 $BASIS GBASIS=N31 NGAUSS=6 NDFUNC=1 DIFFSP=.T. $END
 $TDDFT NSTATE=10 $END

 $DATA
PUBCHEM 012557655 TD-B3LYP 6-31+G(d) gamess
C1
C      6.0      1.2758809230    1.1999696326    0.7442228854 
C      6.0      6.6306644745    1.0913936551   -0.4376425221 
C      6.0      5.6733493612    1.8803869065   -1.0459997277 
C      6.0      6.4469787087    0.0065740200    0.4316000849 
C      6.0      4.2780448350    1.7891223797   -0.9116856314 
C      6.0      5.2764589204   -0.5865392425    0.8941667309 
C      6.0      3.4779376085    0.9024287610   -0.2095401669 
C      6.0      3.8577572866   -0.2535390256    0.5859065775 
N      7.0      5.3410595338   -1.6449793904    1.7438736644 
O      8.0      2.9911105914   -1.0166659528    1.0619568878 
O      8.0      2.1383509735    1.1156791463   -0.3986112004 
H      1.0      0.3323718716    1.5956717412    0.3608716182 
H      1.0      1.6843138025    1.9006711517    1.4842492235 
H      1.0      1.1266570557    0.2233561525    1.2038773979 
H      1.0      7.6683317721    1.3386191514   -0.6520407411 
H      1.0      6.0330528558    2.6822938488   -1.6854064564 
H      1.0      7.3646102910   -0.4530551651    0.7987315592 
H      1.0      3.6968063388    2.5335666469   -1.4512023629 
H      1.0      6.2058889210   -2.1410897293    1.8916412240 
H      1.0      4.4543152760   -2.1092801356    1.9099535319 
 $END


