 $CONTRL RUNTYP=OPTIMIZE DFTTYP=B3LYPV1R
 NZVAR=78 UNITS=ANGS $END
 $SYSTEM TIMLIM=99999999999 MWORDS=200 $END
 $STATPT NSTEP=3 OPTTOL=5D-4 $END
 $SCF DIRSCF=.T. FDIFF=.T. $END
 $ZMAT DLC=.T. AUTO=.T. $END
 $BASIS GBASIS=N31 NGAUSS=6 NDFUNC=1 $END

 $DATA
PUBCHEM 012557685 B3LYP 6-31G(d) gamess geometry optimization
C1
C      6.0      4.8810173067    4.9034176525   -2.6953097434 
C      6.0      5.9682786624    4.8295244617   -1.6367678155 
C      6.0      8.5696263599    0.3922933892   -2.3042977562 
C      6.0      8.9692754949    2.3447433452   -0.9113486234 
C      6.0      9.6698083370    0.8863230274   -3.1804878274 
C      6.0      9.4325613409    3.1113053307   -1.9244245507 
C      6.0      8.0671861971    1.2036501441   -1.2961908425 
C      6.0     10.7873010171    1.4110459030   -2.5921374112 
C      6.0     10.8439564657    2.9636851943   -2.5337520509 
C      6.0      6.0253963110    1.4092447480   -0.0891939868 
C      6.0      5.6014938484    2.8466061126   -0.3797485781 
N      7.0      6.9997786465    0.7330856785   -0.5448595722 
O      8.0     11.2792264008    0.9332281713   -1.4186440411 
O      8.0     11.5977914336    3.7715730167   -2.9966114045 
O      8.0      5.1546335919    0.8216141028    0.7499969348 
O      8.0      4.6602921954    3.3337691307    0.2264615553 
O      8.0      6.3037847307    3.4426010648   -1.3308055111 
H      1.0      4.7059901851    5.9512879132   -2.9635873952 
H      1.0      3.9422641851    4.4847108785   -2.3220259670 
H      1.0      5.1777842499    4.3625412821   -3.5994787835 
H      1.0      5.6666306975    5.3210934976   -0.7096234166 
H      1.0      6.9121696200    5.2518891486   -1.9856733699 
H      1.0      8.0338236423   -0.5352133138   -2.4968905793 
H      1.0      9.6497934932    2.1016051321   -0.0932258704 
H      1.0      9.3859804489    1.2987687380   -4.1483253551 
H      1.0      8.7471114011    3.2889223924   -2.7581277166 
H      1.0     10.7986626891    0.1091698569   -1.1997129941 
H      1.0      4.4961863759    1.5081697162    0.9865152222 
 $END


