 $CONTRL RUNTYP=ENERGY UNITS=ANGS DFTTYP=B3LYPV1R TDDFT=EXCITE
 ICUT=12 QMTTOL=3.0E-6 MAXIT=60 $END
 $SYSTEM TIMLIM=99999999999 MWORDS=200 $END
 $SCF DIRSCF=.T. FDIFF=.F. DAMP=.T. $END
 $BASIS GBASIS=N31 NGAUSS=6 NDFUNC=1 DIFFSP=.T. $END
 $TDDFT NSTATE=10 $END

 $DATA
PUBCHEM 022725835 TD-B3LYP 6-31+G(d) gamess
C1
C      6.0      1.3312102418   -2.2731206414   -0.9714450878 
C      6.0      2.4204775661   -1.7629445975   -0.4041666182 
C      6.0      6.6275896120    0.1408499423   -0.5439807929 
C      6.0      5.1489600510    0.1847872418   -1.0022521783 
C      6.0      5.7511609345   -1.8337721461   -0.1605088267 
N      7.0      6.8951201793   -1.2738354819   -0.2283242577 
N      7.0      4.6114907145   -1.0110266355   -0.3223359374 
O      8.0      5.5127451970   -3.1169116194    0.1290043670 
O      8.0      3.6002618232   -1.6403470693   -1.1066902981 
H      1.0      0.4195771455   -2.3638815548   -0.3932748107 
H      1.0      1.3263792663   -2.6139386701   -2.0013561264 
H      1.0      2.4823410309   -1.4121581375    0.6209588588 
H      1.0      6.7761709217    0.7492121435    0.3575562348 
H      1.0      7.3191057837    0.5072463327   -1.3087792402 
H      1.0      5.0540816290    0.0507381185   -2.0873864344 
H      1.0      4.6085219003    1.0844295220   -0.6994630313 
H      1.0      6.3843557146   -3.5302539259    0.2591415508 
 $END


