 $CONTRL RUNTYP=ENERGY UNITS=ANGS DFTTYP=B3LYPV1R TDDFT=EXCITE
 ICUT=12 QMTTOL=3.0E-6 MAXIT=60 $END
 $SYSTEM TIMLIM=99999999999 MWORDS=200 $END
 $SCF DIRSCF=.T. FDIFF=.F. DAMP=.T. $END
 $BASIS GBASIS=N31 NGAUSS=6 NDFUNC=1 DIFFSP=.T. $END
 $TDDFT NSTATE=10 $END

 $DATA
PUBCHEM 054348116 TD-B3LYP 6-31+G(d) gamess
C1
C      6.0      2.4828899172    0.1076795677   -0.0457239693 
C      6.0      2.9620068074    0.4303103737   -1.2621680558 
C      6.0      2.3115018807   -1.0486298002    0.8557454575 
C      6.0      3.5971125513   -0.2793270298   -2.3598030560 
O      8.0      1.8004339376   -0.9375536960    1.9437603987 
O      8.0      2.7706741052   -2.2024951492    0.3517149558 
O      8.0      3.7952576743   -1.4783277573   -2.2560035301 
O      8.0      3.9480912936    0.4039885251   -3.4573785121 
O      8.0      2.0978843235    1.4166287601    0.2202408929 
O      8.0      2.6199560313    1.7820155637   -1.1107764231 
H      1.0      3.1558847689   -2.0931959908   -0.5517099639 
H      1.0      3.7187373354    1.3476283507   -3.3775532497 
 $END


