 $CONTRL RUNTYP=ENERGY UNITS=ANGS DFTTYP=B3LYPV1R TDDFT=EXCITE
 ICUT=12 QMTTOL=3.0E-6 MAXIT=60 $END
 $SYSTEM TIMLIM=99999999999 MWORDS=200 $END
 $SCF DIRSCF=.T. FDIFF=.F. DAMP=.T. $END
 $BASIS GBASIS=N31 NGAUSS=6 NDFUNC=1 DIFFSP=.T. $END
 $TDDFT NSTATE=10 $END

 $DATA
PUBCHEM 075094878 TD-B3LYP 6-31+G(d) gamess
C1
C      6.0      1.5342500695    0.3330432364   -0.8266474555 
C      6.0      2.5213292941   -0.4396685624    0.0047735017 
C      6.0      1.0302128677    0.2585073473    2.8851635324 
C      6.0      0.0486000599   -1.3754744884    1.7022892724 
N      7.0     -0.2941505635    0.0029617408    3.4087409137 
N      7.0     -0.8465270273   -0.9170187274    2.7441733879 
N      7.0      2.4071507649   -0.8641806921    1.2135991959 
N      7.0      1.1793055031   -0.5981088348    1.8154900598 
O      8.0      3.6940401501   -0.7480613552   -0.5744849917 
S     16.0      2.0703022083    1.3704750588    3.4725778326 
S     16.0     -0.2946521927   -2.5659921267    0.6355650585 
H      1.0      1.1207126118   -0.3161190817   -1.6070303862 
H      1.0      2.0356179060    1.1809857116   -1.3076798185 
H      1.0      0.7087452650    0.7154836334   -0.2263636986 
H      1.0      3.7202300517   -0.3916238303   -1.4757974038 
 $END


